Mini-Project #01
…
# Group-wise analysis
payroll_summary <- payroll_data %>%
  group_by(agency) %>%
  summarize(
    avg_salary = mean(base_salary, na.rm = TRUE),
    median_salary = median(base_salary, na.rm = TRUE),
    max_salary = max(base_salary, na.rm = TRUE),
    min_salary = min(base_salary, na.rm = TRUE)
  )

# View summary
print(payroll_summary)

# A tibble: 170 × 5
   agency                         avg_salary median_salary max_salary min_salary
   <chr>                               <dbl>         <dbl>      <dbl>      <dbl>
 1 ADMIN FOR CHILDREN'S SVCS        65906.         60327       277605      11   
 2 ADMIN TRIALS AND HEARINGS        35970.            61.5     260042       9.41
 3 BOARD OF CORRECTION              95327.         80955       220843   44694   
 4 BOARD OF CORRECTIONS             73991.         59573       151865   42727   
 5 BOARD OF ELECTION                33209.         35919       265554      11.9 
 6 BOARD OF ELECTION POLL WORKERS       1.13           1          100       1   
 7 BOROUGH PRESIDENT-BRONX          77043.         70056       220000      14.2 
 8 BOROUGH PRESIDENT-BROOKLYN       73543.         69526.      259541      13.6 
 9 BOROUGH PRESIDENT-QUEENS         72084.         67088       179200      13.6 
10 BOROUGH PRESIDENT-STATEN IS      61393.         60346       179200       7.25
# ℹ 160 more rows
…
